{
  "transform": {
    "^.+\\.(t|j)sx?$": "ts-jest"
  },
  "testRegex": "((test/.*(\\.?))(test|spec))\\.(jsx?|tsx?)$",
  "moduleFileExtensions": ["ts", "tsx", "js", "jsx", "json", "node"],
  "coverageDirectory": "./coverage/",
  "collectCoverage": true,
  "testEnvironment": "node"
}
